module gitlab.eclipse.org/eclipse/xfsc/tsa/signer

go 1.21

require (
	github.com/hashicorp/vault/api v1.9.2
	github.com/hyperledger/aries-framework-go v0.3.2
	github.com/kelseyhightower/envconfig v1.4.0
	github.com/piprate/json-gold v0.5.0
	github.com/prometheus/client_golang v1.16.0
	github.com/square/go-jose/v3 v3.0.0-20200630053402-0a67ce9b0693
	github.com/stretchr/testify v1.8.4
	gitlab.eclipse.org/eclipse/xfsc/tsa/golib v1.3.2
	go.uber.org/zap v1.25.0
	goa.design/goa/v3 v3.12.3
	golang.org/x/sync v0.3.0
)

require (
	github.com/VictoriaMetrics/fastcache v1.5.7 // indirect
	github.com/beorn7/perks v1.0.1 // indirect
	github.com/btcsuite/btcd v0.22.0-beta // indirect
	github.com/btcsuite/btcutil v1.0.3-0.20201208143702-a53e38424cce // indirect
	github.com/cenkalti/backoff/v3 v3.0.0 // indirect
	github.com/cespare/xxhash/v2 v2.2.0 // indirect
	github.com/davecgh/go-spew v1.1.1 // indirect
	github.com/decred/dcrd/dcrec/secp256k1/v4 v4.2.0 // indirect
	github.com/dimfeld/httppath v0.0.0-20170720192232-ee938bf73598 // indirect
	github.com/dimfeld/httptreemux/v5 v5.5.0 // indirect
	github.com/go-jose/go-jose/v3 v3.0.1-0.20221117193127-916db76e8214 // indirect
	github.com/goccy/go-json v0.10.2 // indirect
	github.com/golang/protobuf v1.5.3 // indirect
	github.com/golang/snappy v0.0.4 // indirect
	github.com/google/tink/go v1.7.0 // indirect
	github.com/google/uuid v1.3.0 // indirect
	github.com/gopherjs/gopherjs v1.17.2 // indirect
	github.com/gorilla/websocket v1.5.0 // indirect
	github.com/hashicorp/errwrap v1.1.0 // indirect
	github.com/hashicorp/go-cleanhttp v0.5.2 // indirect
	github.com/hashicorp/go-multierror v1.1.1 // indirect
	github.com/hashicorp/go-retryablehttp v0.6.6 // indirect
	github.com/hashicorp/go-rootcerts v1.0.2 // indirect
	github.com/hashicorp/go-secure-stdlib/parseutil v0.1.6 // indirect
	github.com/hashicorp/go-secure-stdlib/strutil v0.1.2 // indirect
	github.com/hashicorp/go-sockaddr v1.0.2 // indirect
	github.com/hashicorp/hcl v1.0.0 // indirect
	github.com/hyperledger/aries-framework-go/component/kmscrypto v0.0.0-20230427134832-0c9969493bd3 // indirect
	github.com/hyperledger/aries-framework-go/component/log v0.0.0-20230427134832-0c9969493bd3 // indirect
	github.com/hyperledger/aries-framework-go/component/models v0.0.0-20230501135648-a9a7ad029347 // indirect
	github.com/hyperledger/aries-framework-go/spi v0.0.0-20230427134832-0c9969493bd3 // indirect
	github.com/hyperledger/ursa-wrapper-go v0.3.1 // indirect
	github.com/jinzhu/copier v0.0.0-20190924061706-b57f9002281a // indirect
	github.com/jtolds/gls v4.20.0+incompatible // indirect
	github.com/kilic/bls12-381 v0.1.1-0.20210503002446-7b7597926c69 // indirect
	github.com/lestrrat-go/blackmagic v1.0.1 // indirect
	github.com/lestrrat-go/httpcc v1.0.1 // indirect
	github.com/lestrrat-go/httprc v1.0.4 // indirect
	github.com/lestrrat-go/iter v1.0.2 // indirect
	github.com/lestrrat-go/jwx/v2 v2.0.11 // indirect
	github.com/lestrrat-go/option v1.0.1 // indirect
	github.com/manveru/faker v0.0.0-20171103152722-9fbc68a78c4d // indirect
	github.com/matttproud/golang_protobuf_extensions v1.0.4 // indirect
	github.com/minio/blake2b-simd v0.0.0-20160723061019-3f5f724cb5b1 // indirect
	github.com/minio/sha256-simd v0.1.1 // indirect
	github.com/mitchellh/go-homedir v1.1.0 // indirect
	github.com/mitchellh/mapstructure v1.5.0 // indirect
	github.com/mr-tron/base58 v1.2.0 // indirect
	github.com/multiformats/go-base32 v0.1.0 // indirect
	github.com/multiformats/go-base36 v0.1.0 // indirect
	github.com/multiformats/go-multibase v0.1.1 // indirect
	github.com/multiformats/go-multihash v0.0.13 // indirect
	github.com/multiformats/go-varint v0.0.5 // indirect
	github.com/pkg/errors v0.9.1 // indirect
	github.com/pmezard/go-difflib v1.0.0 // indirect
	github.com/pquerna/cachecontrol v0.1.0 // indirect
	github.com/prometheus/client_model v0.3.0 // indirect
	github.com/prometheus/common v0.42.0 // indirect
	github.com/prometheus/procfs v0.10.1 // indirect
	github.com/rogpeppe/go-internal v1.11.0 // indirect
	github.com/ryanuber/go-glob v1.0.0 // indirect
	github.com/segmentio/asm v1.2.0 // indirect
	github.com/sergi/go-diff v1.3.1 // indirect
	github.com/smartystreets/assertions v1.13.0 // indirect
	github.com/spaolacci/murmur3 v1.1.0 // indirect
	github.com/teserakt-io/golang-ed25519 v0.0.0-20210104091850-3888c087a4c8 // indirect
	github.com/xeipuuv/gojsonpointer v0.0.0-20190905194746-02993c407bfb // indirect
	github.com/xeipuuv/gojsonreference v0.0.0-20180127040603-bd5ef7bd5415 // indirect
	github.com/xeipuuv/gojsonschema v1.2.0 // indirect
	github.com/zach-klippenstein/goregen v0.0.0-20160303162051-795b5e3961ea // indirect
	go.uber.org/multierr v1.10.0 // indirect
	golang.org/x/crypto v0.11.0 // indirect
	golang.org/x/mod v0.12.0 // indirect
	golang.org/x/net v0.12.0 // indirect
	golang.org/x/sys v0.10.0 // indirect
	golang.org/x/text v0.11.0 // indirect
	golang.org/x/time v0.1.0 // indirect
	golang.org/x/tools v0.11.0 // indirect
	google.golang.org/protobuf v1.31.0 // indirect
	gopkg.in/yaml.v3 v3.0.1 // indirect
)
